EESchema Schematic File Version 2
LIBS:power
LIBS:MyKiCadLibs-Lib
LIBS:DSP-ADAU1761-MircoPCB-cache
EELAYER 25 0
EELAYER END
$Descr A4 11693 8268
encoding utf-8
Sheet 4 4
Title "ADAU145x DSP - ADAU1452, ADAU1451, ADAU1450 supported"
Date "2016-05-25"
Rev "2.0"
Comp "Open Hardware DSP Platform - www.ohdsp.org"
Comment1 "MERCHANTABILITY, SATISFACTORY QUALITY AND FITNESS FOR A PARTICULAR PURPOSE."
Comment2 "is distributed WITHOUT ANY EXPRESS OR IMPLIED WARRANTY, INCLUDING OF"
Comment3 "Licensed under the TAPR Open Hardware License (www.tapr.org/OHL). This documentation"
Comment4 "Copyright Paul Janicki 2016"
$EndDescr
Text HLabel 6850 1800 2    60   Input ~ 0
ADC_LRCLK0
Text HLabel 6850 2000 2    60   Input ~ 0
ADC_BCLK0
Text HLabel 6850 2200 2    60   Output ~ 0
ADC_SDATA0
Text Notes 7900 4325 0    118  ~ 0
ADI EVAL-ADUSB2Z USB/I2C\nProgramming/Control
Text Label 8200 4800 0    60   ~ 0
SL_SCL
Text Label 8200 4900 0    60   ~ 0
SL_SDA
Text HLabel 8300 1800 0    60   Input ~ 0
DAC_LRCLK0
Text HLabel 8300 2000 0    60   Input ~ 0
DAC_BCLK0
Text HLabel 8300 2200 0    60   Input ~ 0
DAC_SDATA0
Text HLabel 8100 4800 0    60   BiDi ~ 0
I2C_SCL
Text HLabel 8100 4900 0    60   BiDi ~ 0
I2C_SDA
Text Notes 7900 4550 0    59   ~ 0
These go to the slave port\nThese are 3V3 lines only!
Text Notes 4200 1100 0    118  ~ 0
I2S Input
Text Notes 4200 1300 0    59   ~ 0
See ADAU1452 datasheet for details\nInputs are highly flexible
$Comp
L GNDD #PWR030
U 1 1 54E56282
P 8950 3100
F 0 "#PWR030" H 8950 2850 60  0001 C CNN
F 1 "GNDD" H 8950 2950 60  0000 C CNN
F 2 "" H 8950 3100 60  0000 C CNN
F 3 "" H 8950 3100 60  0000 C CNN
	1    8950 3100
	1    0    0    -1  
$EndComp
Text Notes 7700 1000 0    118  ~ 0
I2S Output
$Comp
L GNDD #PWR031
U 1 1 54E3EEEB
P 10900 2250
F 0 "#PWR031" H 10900 2000 60  0001 C CNN
F 1 "GNDD" H 10900 2100 60  0000 C CNN
F 2 "" H 10900 2250 60  0000 C CNN
F 3 "" H 10900 2250 60  0000 C CNN
	1    10900 2250
	1    0    0    -1  
$EndComp
$Comp
L GNDD #PWR032
U 1 1 54E3EF03
P 10300 2250
F 0 "#PWR032" H 10300 2000 60  0001 C CNN
F 1 "GNDD" H 10300 2100 60  0000 C CNN
F 2 "" H 10300 2250 60  0000 C CNN
F 3 "" H 10300 2250 60  0000 C CNN
	1    10300 2250
	1    0    0    -1  
$EndComp
NoConn ~ 9250 4900
NoConn ~ 9250 4800
Text HLabel 8100 5000 0    60   Input ~ 0
SPI_MISO
Text HLabel 8100 5100 0    60   Output ~ 0
SPI_SCLK
Text HLabel 8100 5200 0    60   Output ~ 0
SPI_SS
Text HLabel 10250 5100 2    60   Output ~ 0
SPI_MOSI
$Comp
L GNDD #PWR033
U 1 1 561875D1
P 9350 5300
F 0 "#PWR033" H 9350 5050 60  0001 C CNN
F 1 "GNDD" H 9350 5150 60  0000 C CNN
F 2 "" H 9350 5300 60  0000 C CNN
F 3 "" H 9350 5300 60  0000 C CNN
	1    9350 5300
	1    0    0    -1  
$EndComp
$Comp
L PIN TP405
U 1 1 561D32CC
P 9750 2250
F 0 "TP405" H 10125 2250 40  0000 C CNN
F 1 "PIN" H 10100 2250 40  0001 C CNN
F 2 "MyKiCadLibs-Footprints:TP-TH-1mm" H 10090 2140 60  0001 C CNN
F 3 "" H 10090 2140 60  0000 C CNN
	1    9750 2250
	1    0    0    -1  
$EndComp
$Comp
L PIN TP406
U 1 1 561D343D
P 9750 2400
F 0 "TP406" H 9975 2300 40  0000 C CNN
F 1 "PIN" H 10100 2400 40  0001 C CNN
F 2 "MyKiCadLibs-Footprints:TP-TH-1mm" H 10090 2290 60  0001 C CNN
F 3 "" H 10090 2290 60  0000 C CNN
	1    9750 2400
	1    0    0    -1  
$EndComp
$Comp
L PIN TP404
U 1 1 561D074E
P 9600 1500
F 0 "TP404" H 9975 1500 40  0000 C CNN
F 1 "PIN" H 9950 1500 40  0001 C CNN
F 2 "MyKiCadLibs-Footprints:TP-TH-1mm" H 9940 1390 60  0001 C CNN
F 3 "" H 9940 1390 60  0000 C CNN
	1    9600 1500
	1    0    0    -1  
$EndComp
Text Notes 7700 1200 0    59   ~ 0
See ADAU1452 datasheet for details\nOutputs are highly flexible
$Comp
L PIN TP402
U 1 1 561E4509
P 5350 2650
F 0 "TP402" H 5725 2650 40  0000 C CNN
F 1 "PIN" H 5900 2650 40  0001 C CNN
F 2 "MyKiCadLibs-Footprints:TP-TH-1mm" H 5690 2540 60  0001 C CNN
F 3 "" H 5690 2540 60  0000 C CNN
	1    5350 2650
	-1   0    0    -1  
$EndComp
$Comp
L PIN TP401
U 1 1 561E46AC
P 5100 1500
F 0 "TP401" H 5475 1500 40  0000 C CNN
F 1 "PIN" H 5650 1500 40  0001 C CNN
F 2 "MyKiCadLibs-Footprints:TP-TH-1mm" H 5440 1390 60  0001 C CNN
F 3 "" H 5440 1390 60  0000 C CNN
	1    5100 1500
	-1   0    0    -1  
$EndComp
$Comp
L GNDD #PWR034
U 1 1 56998C61
P 5600 3200
F 0 "#PWR034" H 5600 2950 60  0001 C CNN
F 1 "GNDD" H 5600 3050 60  0000 C CNN
F 2 "" H 5600 3200 60  0000 C CNN
F 3 "" H 5600 3200 60  0000 C CNN
	1    5600 3200
	1    0    0    -1  
$EndComp
$Comp
L GNDD #PWR035
U 1 1 56998C67
P 4350 2250
F 0 "#PWR035" H 4350 2000 60  0001 C CNN
F 1 "GNDD" H 4350 2100 60  0000 C CNN
F 2 "" H 4350 2250 60  0000 C CNN
F 3 "" H 4350 2250 60  0000 C CNN
	1    4350 2250
	-1   0    0    -1  
$EndComp
$Comp
L GNDD #PWR036
U 1 1 56998C6D
P 4950 2250
F 0 "#PWR036" H 4950 2000 60  0001 C CNN
F 1 "GNDD" H 4950 2100 60  0000 C CNN
F 2 "" H 4950 2250 60  0000 C CNN
F 3 "" H 4950 2250 60  0000 C CNN
	1    4950 2250
	-1   0    0    -1  
$EndComp
$Comp
L GNDD #PWR037
U 1 1 56ED7EAB
P 4750 5250
F 0 "#PWR037" H 4750 5000 60  0001 C CNN
F 1 "GNDD" H 4750 5100 60  0000 C CNN
F 2 "" H 4750 5250 60  0000 C CNN
F 3 "" H 4750 5250 60  0000 C CNN
	1    4750 5250
	1    0    0    -1  
$EndComp
Text HLabel 5450 4700 2    60   Output ~ 0
M_SPI_MISO
Text HLabel 5450 4800 2    60   Input ~ 0
M_SPI_SCLK
Text HLabel 5450 5000 2    60   Input ~ 0
M_SPI_SS
Text HLabel 5450 4900 2    60   Input ~ 0
M_SPI_MOSI
Text Notes 4700 4450 0    118  ~ 0
Master SPI Port
Text Label 8200 5000 0    60   ~ 0
SL_MISO
Text Label 8200 5100 0    60   ~ 0
SL_SCLK
Text Label 8200 5200 0    60   ~ 0
SL_SS
Text Label 9300 5100 0    60   ~ 0
SL_MOSI
$Comp
L CONN_02X05 P401
U 1 1 570C3FF4
P 4650 2000
F 0 "P401" H 4650 2300 50  0000 C CNN
F 1 "CONN_02X05" H 4650 1700 50  0000 C CNN
F 2 "MyKiCadLibs-Footprints:CONN_DIL_2X5_BOX_1MM" H 4650 800 60  0001 C CNN
F 3 "" H 4650 800 60  0000 C CNN
F 4 "2x5 2.54mm pitch box header" H 4650 1600 40  0001 C CNN "Description"
	1    4650 2000
	1    0    0    -1  
$EndComp
$Comp
L CONN_02X05 P404
U 1 1 570C928E
P 10600 2000
F 0 "P404" H 10600 2300 50  0000 C CNN
F 1 "CONN_02X05" H 10600 1700 50  0000 C CNN
F 2 "MyKiCadLibs-Footprints:CONN_DIL_2X5_BOX_1MM" H 10600 800 60  0001 C CNN
F 3 "" H 10600 800 60  0000 C CNN
F 4 "2x5 2.54mm pitch box header" H 10600 1600 40  0001 C CNN "Description"
	1    10600 2000
	-1   0    0    -1  
$EndComp
$Comp
L CONN_02X05 P402
U 1 1 570CFFEC
P 9000 5000
F 0 "P402" H 9000 5300 50  0000 C CNN
F 1 "CONN_02X05" H 9000 4700 50  0000 C CNN
F 2 "MyKiCadLibs-Footprints:CONN_DIL_2X5_BOX_1MM" H 9000 3800 60  0001 C CNN
F 3 "" H 9000 3800 60  0000 C CNN
F 4 "2x5 2.54mm pitch box header" H 9000 4600 40  0001 C CNN "Description"
	1    9000 5000
	1    0    0    -1  
$EndComp
$Comp
L CONN_02X06 P403
U 1 1 570D21B4
P 5100 4950
F 0 "P403" H 5100 5300 50  0000 C CNN
F 1 "CONN_02X06" H 5100 4600 50  0000 C CNN
F 2 "MyKiCadLibs-Footprints:CONN_DIL_2X6_BOX_1MM" H 5100 3750 60  0001 C CNN
F 3 "" H 5100 3750 60  0000 C CNN
F 4 "2x6 2.54mm pitch box header" H 5100 4500 40  0001 C CNN "Description"
	1    5100 4950
	1    0    0    -1  
$EndComp
$Comp
L R R405
U 1 1 57127AC7
P 6500 1600
F 0 "R405" V 6450 1900 40  0000 C CNN
F 1 "75" V 6507 1601 40  0000 C CNN
F 2 "MyKiCadLibs-Footprints:SMD-0805" V 6430 1600 30  0001 C CNN
F 3 "" V 6420 1600 30  0000 C CNN
F 4 "100mW" V 6600 1600 40  0001 C CNN "Power"
F 5 "Thick or thin film resistor" V 6745 1600 40  0001 C CNN "Description"
F 6 "0805" V 6675 1600 40  0001 C CNN "Size"
F 7 "1%" V 6825 1600 40  0001 C CNN "Tolerance"
	1    6500 1600
	0    -1   1    0   
$EndComp
$Comp
L R R407
U 1 1 57129ACB
P 6500 2000
F 0 "R407" V 6450 2300 40  0000 C CNN
F 1 "75" V 6507 2001 40  0000 C CNN
F 2 "MyKiCadLibs-Footprints:SMD-0805" V 6430 2000 30  0001 C CNN
F 3 "" V 6420 2000 30  0000 C CNN
F 4 "100mW" V 6600 2000 40  0001 C CNN "Power"
F 5 "Thick or thin film resistor" V 6745 2000 40  0001 C CNN "Description"
F 6 "0805" V 6675 2000 40  0001 C CNN "Size"
F 7 "1%" V 6825 2000 40  0001 C CNN "Tolerance"
	1    6500 2000
	0    -1   1    0   
$EndComp
$Comp
L R R401
U 1 1 5712AF3F
P 5600 2700
F 0 "R401" V 5550 3000 40  0000 C CNN
F 1 "N/F" V 5607 2701 40  0000 C CNN
F 2 "MyKiCadLibs-Footprints:SMD-0805" V 5530 2700 30  0001 C CNN
F 3 "" V 5520 2700 30  0000 C CNN
F 4 "100mW" V 5700 2700 40  0001 C CNN "Power"
F 5 "Thick or thin film resistor" V 5845 2700 40  0001 C CNN "Description"
F 6 "0805" V 5775 2700 40  0001 C CNN "Size"
F 7 "1%" V 5925 2700 40  0001 C CNN "Tolerance"
	1    5600 2700
	1    0    0    1   
$EndComp
$Comp
L R R402
U 1 1 5712BDAE
P 5750 2700
F 0 "R402" V 5700 3000 40  0000 C CNN
F 1 "N/F" V 5757 2701 40  0000 C CNN
F 2 "MyKiCadLibs-Footprints:SMD-0805" V 5680 2700 30  0001 C CNN
F 3 "" V 5670 2700 30  0000 C CNN
F 4 "100mW" V 5850 2700 40  0001 C CNN "Power"
F 5 "Thick or thin film resistor" V 5995 2700 40  0001 C CNN "Description"
F 6 "0805" V 5925 2700 40  0001 C CNN "Size"
F 7 "1%" V 6075 2700 40  0001 C CNN "Tolerance"
	1    5750 2700
	1    0    0    1   
$EndComp
$Comp
L R R403
U 1 1 5712BFA0
P 5900 2700
F 0 "R403" V 5850 3000 40  0000 C CNN
F 1 "N/F" V 5907 2701 40  0000 C CNN
F 2 "MyKiCadLibs-Footprints:SMD-0805" V 5830 2700 30  0001 C CNN
F 3 "" V 5820 2700 30  0000 C CNN
F 4 "100mW" V 6000 2700 40  0001 C CNN "Power"
F 5 "Thick or thin film resistor" V 6145 2700 40  0001 C CNN "Description"
F 6 "0805" V 6075 2700 40  0001 C CNN "Size"
F 7 "1%" V 6225 2700 40  0001 C CNN "Tolerance"
	1    5900 2700
	1    0    0    1   
$EndComp
$Comp
L R R404
U 1 1 5712C17B
P 6050 2700
F 0 "R404" V 6000 3000 40  0000 C CNN
F 1 "N/F" V 6057 2701 40  0000 C CNN
F 2 "MyKiCadLibs-Footprints:SMD-0805" V 5980 2700 30  0001 C CNN
F 3 "" V 5970 2700 30  0000 C CNN
F 4 "100mW" V 6150 2700 40  0001 C CNN "Power"
F 5 "Thick or thin film resistor" V 6295 2700 40  0001 C CNN "Description"
F 6 "0805" V 6225 2700 40  0001 C CNN "Size"
F 7 "1%" V 6375 2700 40  0001 C CNN "Tolerance"
	1    6050 2700
	1    0    0    1   
$EndComp
$Comp
L R R412
U 1 1 5713A649
P 8650 1600
F 0 "R412" V 8600 1875 40  0000 C CNN
F 1 "75" V 8657 1601 40  0000 C CNN
F 2 "MyKiCadLibs-Footprints:SMD-0805" V 8580 1600 30  0001 C CNN
F 3 "" V 8570 1600 30  0000 C CNN
F 4 "100mW" V 8750 1600 40  0001 C CNN "Power"
F 5 "Thick or thin film resistor" V 8895 1600 40  0001 C CNN "Description"
F 6 "0805" V 8825 1600 40  0001 C CNN "Size"
F 7 "1%" V 8975 1600 40  0001 C CNN "Tolerance"
	1    8650 1600
	0    -1   1    0   
$EndComp
$Comp
L R R413
U 1 1 5713D5AC
P 8650 1800
F 0 "R413" V 8600 2075 40  0000 C CNN
F 1 "75" V 8657 1801 40  0000 C CNN
F 2 "MyKiCadLibs-Footprints:SMD-0805" V 8580 1800 30  0001 C CNN
F 3 "" V 8570 1800 30  0000 C CNN
F 4 "100mW" V 8750 1800 40  0001 C CNN "Power"
F 5 "Thick or thin film resistor" V 8895 1800 40  0001 C CNN "Description"
F 6 "0805" V 8825 1800 40  0001 C CNN "Size"
F 7 "1%" V 8975 1800 40  0001 C CNN "Tolerance"
	1    8650 1800
	0    -1   1    0   
$EndComp
$Comp
L R R414
U 1 1 5713D5B7
P 8650 2000
F 0 "R414" V 8600 2275 40  0000 C CNN
F 1 "75" V 8657 2001 40  0000 C CNN
F 2 "MyKiCadLibs-Footprints:SMD-0805" V 8580 2000 30  0001 C CNN
F 3 "" V 8570 2000 30  0000 C CNN
F 4 "100mW" V 8750 2000 40  0001 C CNN "Power"
F 5 "Thick or thin film resistor" V 8895 2000 40  0001 C CNN "Description"
F 6 "0805" V 8825 2000 40  0001 C CNN "Size"
F 7 "1%" V 8975 2000 40  0001 C CNN "Tolerance"
	1    8650 2000
	0    -1   1    0   
$EndComp
$Comp
L R R415
U 1 1 5713D5C2
P 8650 2200
F 0 "R415" V 8600 2475 40  0000 C CNN
F 1 "75" V 8657 2201 40  0000 C CNN
F 2 "MyKiCadLibs-Footprints:SMD-0805" V 8580 2200 30  0001 C CNN
F 3 "" V 8570 2200 30  0000 C CNN
F 4 "100mW" V 8750 2200 40  0001 C CNN "Power"
F 5 "Thick or thin film resistor" V 8895 2200 40  0001 C CNN "Description"
F 6 "0805" V 8825 2200 40  0001 C CNN "Size"
F 7 "1%" V 8975 2200 40  0001 C CNN "Tolerance"
	1    8650 2200
	0    -1   1    0   
$EndComp
$Comp
L R R416
U 1 1 5713D5CD
P 8950 2600
F 0 "R416" V 8900 2900 40  0000 C CNN
F 1 "N/F" V 8957 2601 40  0000 C CNN
F 2 "MyKiCadLibs-Footprints:SMD-0805" V 8880 2600 30  0001 C CNN
F 3 "" V 8870 2600 30  0000 C CNN
F 4 "100mW" V 9050 2600 40  0001 C CNN "Power"
F 5 "Thick or thin film resistor" V 9195 2600 40  0001 C CNN "Description"
F 6 "0805" V 9125 2600 40  0001 C CNN "Size"
F 7 "1%" V 9275 2600 40  0001 C CNN "Tolerance"
	1    8950 2600
	1    0    0    1   
$EndComp
$Comp
L R R417
U 1 1 5713D5D8
P 9100 2600
F 0 "R417" V 9050 2900 40  0000 C CNN
F 1 "N/F" V 9107 2601 40  0000 C CNN
F 2 "MyKiCadLibs-Footprints:SMD-0805" V 9030 2600 30  0001 C CNN
F 3 "" V 9020 2600 30  0000 C CNN
F 4 "100mW" V 9200 2600 40  0001 C CNN "Power"
F 5 "Thick or thin film resistor" V 9345 2600 40  0001 C CNN "Description"
F 6 "0805" V 9275 2600 40  0001 C CNN "Size"
F 7 "1%" V 9425 2600 40  0001 C CNN "Tolerance"
	1    9100 2600
	1    0    0    1   
$EndComp
$Comp
L R R418
U 1 1 5713D5E3
P 9250 2600
F 0 "R418" V 9200 2900 40  0000 C CNN
F 1 "N/F" V 9257 2601 40  0000 C CNN
F 2 "MyKiCadLibs-Footprints:SMD-0805" V 9180 2600 30  0001 C CNN
F 3 "" V 9170 2600 30  0000 C CNN
F 4 "100mW" V 9350 2600 40  0001 C CNN "Power"
F 5 "Thick or thin film resistor" V 9495 2600 40  0001 C CNN "Description"
F 6 "0805" V 9425 2600 40  0001 C CNN "Size"
F 7 "1%" V 9575 2600 40  0001 C CNN "Tolerance"
	1    9250 2600
	1    0    0    1   
$EndComp
$Comp
L R R419
U 1 1 5713D5EE
P 9400 2600
F 0 "R419" V 9350 2900 40  0000 C CNN
F 1 "N/F" V 9407 2601 40  0000 C CNN
F 2 "MyKiCadLibs-Footprints:SMD-0805" V 9330 2600 30  0001 C CNN
F 3 "" V 9320 2600 30  0000 C CNN
F 4 "100mW" V 9500 2600 40  0001 C CNN "Power"
F 5 "Thick or thin film resistor" V 9645 2600 40  0001 C CNN "Description"
F 6 "0805" V 9575 2600 40  0001 C CNN "Size"
F 7 "1%" V 9725 2600 40  0001 C CNN "Tolerance"
	1    9400 2600
	1    0    0    1   
$EndComp
Text Notes 750  850  0    118  ~ 0
Connectors
$Comp
L CONN_4x1 P405
U 1 1 578EA781
P 1200 1550
F 0 "P405" V 1685 1245 40  0000 C CNN
F 1 "CONN_4x1" V 1630 1360 40  0000 C CNN
F 2 "MyKiCadLibs-Footprints:CONN_SIL_4_1MM" H 1540 1440 60  0001 C CNN
F 3 "" H 1540 1440 60  0000 C CNN
F 4 "Text description" H 1450 1150 40  0001 C CNN "Description"
	1    1200 1550
	-1   0    0    -1  
$EndComp
$Comp
L R R420
U 1 1 578EA78C
P 2100 1050
F 0 "R420" V 2050 1350 40  0000 C CNN
F 1 "100" V 2107 1051 40  0000 C CNN
F 2 "MyKiCadLibs-Footprints:SMD-0805" V 2030 1050 30  0001 C CNN
F 3 "" V 2020 1050 30  0000 C CNN
F 4 "100mW" V 2200 1050 40  0001 C CNN "Power"
F 5 "Thick or thin film resistor" V 2345 1050 40  0001 C CNN "Description"
F 6 "0805" V 2275 1050 40  0001 C CNN "Size"
F 7 "1%" V 2425 1050 40  0001 C CNN "Tolerance"
	1    2100 1050
	0    -1   1    0   
$EndComp
$Comp
L R R421
U 1 1 578EA797
P 2100 1650
F 0 "R421" V 2050 1950 40  0000 C CNN
F 1 "100" V 2107 1651 40  0000 C CNN
F 2 "MyKiCadLibs-Footprints:SMD-0805" V 2030 1650 30  0001 C CNN
F 3 "" V 2020 1650 30  0000 C CNN
F 4 "100mW" V 2200 1650 40  0001 C CNN "Power"
F 5 "Thick or thin film resistor" V 2345 1650 40  0001 C CNN "Description"
F 6 "0805" V 2275 1650 40  0001 C CNN "Size"
F 7 "1%" V 2425 1650 40  0001 C CNN "Tolerance"
	1    2100 1650
	0    -1   1    0   
$EndComp
$Comp
L CONN_4x1 P406
U 1 1 578EA7B9
P 1200 3300
F 0 "P406" V 1685 2995 40  0000 C CNN
F 1 "CONN_4x1" V 1630 3110 40  0000 C CNN
F 2 "MyKiCadLibs-Footprints:CONN_SIL_4_1MM" H 1540 3190 60  0001 C CNN
F 3 "" H 1540 3190 60  0000 C CNN
F 4 "Text description" H 1450 2900 40  0001 C CNN "Description"
	1    1200 3300
	-1   0    0    -1  
$EndComp
$Comp
L R R424
U 1 1 578EA7C4
P 1700 3300
F 0 "R424" V 1650 3600 40  0000 C CNN
F 1 "1k" V 1707 3301 40  0000 C CNN
F 2 "MyKiCadLibs-Footprints:SMD-0805" V 1630 3300 30  0001 C CNN
F 3 "" V 1620 3300 30  0000 C CNN
F 4 "100mW" V 1800 3300 40  0001 C CNN "Power"
F 5 "Thick or thin film resistor" V 1945 3300 40  0001 C CNN "Description"
F 6 "0805" V 1875 3300 40  0001 C CNN "Size"
F 7 "1%" V 2025 3300 40  0001 C CNN "Tolerance"
	1    1700 3300
	0    -1   1    0   
$EndComp
$Comp
L R R425
U 1 1 578EA7D1
P 1700 3500
F 0 "R425" V 1650 3800 40  0000 C CNN
F 1 "1k" V 1707 3501 40  0000 C CNN
F 2 "MyKiCadLibs-Footprints:SMD-0805" V 1630 3500 30  0001 C CNN
F 3 "" V 1620 3500 30  0000 C CNN
F 4 "100mW" V 1800 3500 40  0001 C CNN "Power"
F 5 "Thick or thin film resistor" V 1945 3500 40  0001 C CNN "Description"
F 6 "0805" V 1875 3500 40  0001 C CNN "Size"
F 7 "1%" V 2025 3500 40  0001 C CNN "Tolerance"
	1    1700 3500
	0    -1   1    0   
$EndComp
$Comp
L CP1 C402
U 1 1 578EA7DB
P 2800 3300
F 0 "C402" H 2850 3400 50  0000 L CNN
F 1 "100u" H 2850 3200 50  0000 L CNN
F 2 "MyKiCadLibs-Footprints:CAP-TH-D6.3mmP2.5mm" H 2800 3300 60  0001 C CNN
F 3 "" H 2800 3300 60  0000 C CNN
F 4 "10V" H 2855 3115 50  0000 L CNN "Voltage"
F 5 "2.5mm pitch, 6.3mm diameter" H 2800 3600 40  0001 L CNN "Type"
F 6 "Low impedance aluminium electrolytic capacitor - Panasonic FC, FR or similar" H 2800 3700 40  0001 L CNN "Description"
	1    2800 3300
	0    1    1    0   
$EndComp
$Comp
L GNDD #PWR038
U 1 1 578EA7E2
P 1350 3700
F 0 "#PWR038" H 1350 3450 60  0001 C CNN
F 1 "GNDD" H 1350 3550 60  0000 C CNN
F 2 "" H 1350 3700 60  0000 C CNN
F 3 "" H 1350 3700 60  0000 C CNN
	1    1350 3700
	1    0    0    -1  
$EndComp
$Comp
L CP1 C403
U 1 1 578EB5A9
P 2800 3700
F 0 "C403" H 2850 3800 50  0000 L CNN
F 1 "100u" H 2850 3600 50  0000 L CNN
F 2 "MyKiCadLibs-Footprints:CAP-TH-D6.3mmP2.5mm" H 2800 3700 60  0001 C CNN
F 3 "" H 2800 3700 60  0000 C CNN
F 4 "10V" H 2855 3515 50  0000 L CNN "Voltage"
F 5 "2.5mm pitch, 6.3mm diameter" H 2800 4000 40  0001 L CNN "Type"
F 6 "Low impedance aluminium electrolytic capacitor - Panasonic FC, FR or similar" H 2800 4100 40  0001 L CNN "Description"
	1    2800 3700
	0    1    1    0   
$EndComp
$Comp
L C C401
U 1 1 578EC7FC
P 2800 2900
F 0 "C401" H 2800 3000 40  0000 L CNN
F 1 "100n" H 2810 2815 40  0000 L CNN
F 2 "MyKiCadLibs-Footprints:SMD-0805" H 2838 2750 30  0001 C CNN
F 3 "" H 2800 3000 60  0000 C CNN
F 4 "16V" H 2815 2745 40  0000 L CNN "Voltage"
F 5 "PPS" H 2815 2675 40  0000 L CNN "Type"
F 6 "PPS Film capacitor - eg PANASONIC ECPU1C104MA5" H 2800 3200 40  0001 L CNN "Description"
F 7 "20%" H 2870 2535 40  0001 C CNN "Tolerance"
F 8 "0805" H 2810 2605 40  0000 L CNN "Size"
	1    2800 2900
	0    1    1    0   
$EndComp
Text HLabel 3300 3300 2    60   Output ~ 0
L_AUX
Text HLabel 3300 3700 2    60   Output ~ 0
R_AUX
Text HLabel 2600 1050 2    60   Output ~ 0
L_LINP
Text HLabel 2600 1650 2    60   Output ~ 0
L_LINN
$Comp
L CONN_4x1 P407
U 1 1 578E6006
P 3300 5550
F 0 "P407" V 3785 5245 40  0000 C CNN
F 1 "CONN_4x1" V 3730 5360 40  0000 C CNN
F 2 "MyKiCadLibs-Footprints:CONN_SIL_4_1MM" H 3640 5440 60  0001 C CNN
F 3 "" H 3640 5440 60  0000 C CNN
F 4 "Text description" H 3550 5150 40  0001 C CNN "Description"
	1    3300 5550
	1    0    0    -1  
$EndComp
$Comp
L R R422
U 1 1 578F55EA
P 1600 1350
F 0 "R422" V 1500 1350 40  0000 C CNN
F 1 "10k" V 1607 1351 40  0000 C CNN
F 2 "MyKiCadLibs-Footprints:SMD-0805" V 1530 1350 30  0001 C CNN
F 3 "" V 1520 1350 30  0000 C CNN
F 4 "100mW" V 1700 1350 40  0001 C CNN "Power"
F 5 "Thick or thin film resistor" V 1845 1350 40  0001 C CNN "Description"
F 6 "0805" V 1775 1350 40  0001 C CNN "Size"
F 7 "1%" V 1925 1350 40  0001 C CNN "Tolerance"
	1    1600 1350
	-1   0    0    -1  
$EndComp
$Comp
L C C405
U 1 1 578F96C0
P 2400 1350
F 0 "C405" H 2400 1450 40  0000 L CNN
F 1 "2n7" H 2410 1265 40  0000 L CNN
F 2 "MyKiCadLibs-Footprints:SMD-0805" H 2438 1200 30  0001 C CNN
F 3 "" H 2400 1450 60  0000 C CNN
F 4 "50V" H 2465 1200 40  0000 C CNN "Voltage"
F 5 "C0G" H 2470 1125 40  0000 C CNN "Type"
F 6 "Ceramic capacitor" H 2400 1650 40  0001 L CNN "Description"
F 7 "5%" H 2800 1850 40  0001 C CNN "Tolerance"
F 8 "0805" H 2400 1350 60  0001 C CNN "Size"
	1    2400 1350
	1    0    0    -1  
$EndComp
$Comp
L R R426
U 1 1 57900DE7
P 2100 1950
F 0 "R426" V 2050 2250 40  0000 C CNN
F 1 "100" V 2107 1951 40  0000 C CNN
F 2 "MyKiCadLibs-Footprints:SMD-0805" V 2030 1950 30  0001 C CNN
F 3 "" V 2020 1950 30  0000 C CNN
F 4 "100mW" V 2200 1950 40  0001 C CNN "Power"
F 5 "Thick or thin film resistor" V 2345 1950 40  0001 C CNN "Description"
F 6 "0805" V 2275 1950 40  0001 C CNN "Size"
F 7 "1%" V 2425 1950 40  0001 C CNN "Tolerance"
	1    2100 1950
	0    -1   1    0   
$EndComp
$Comp
L R R427
U 1 1 57900DF1
P 2100 2550
F 0 "R427" V 2050 2850 40  0000 C CNN
F 1 "100" V 2107 2551 40  0000 C CNN
F 2 "MyKiCadLibs-Footprints:SMD-0805" V 2030 2550 30  0001 C CNN
F 3 "" V 2020 2550 30  0000 C CNN
F 4 "100mW" V 2200 2550 40  0001 C CNN "Power"
F 5 "Thick or thin film resistor" V 2345 2550 40  0001 C CNN "Description"
F 6 "0805" V 2275 2550 40  0001 C CNN "Size"
F 7 "1%" V 2425 2550 40  0001 C CNN "Tolerance"
	1    2100 2550
	0    -1   1    0   
$EndComp
Text HLabel 2600 1950 2    60   Output ~ 0
R_LINP
Text HLabel 2600 2550 2    60   Output ~ 0
R_LINN
$Comp
L R R423
U 1 1 57900E00
P 1600 2250
F 0 "R423" V 1500 2250 40  0000 C CNN
F 1 "10k" V 1607 2251 40  0000 C CNN
F 2 "MyKiCadLibs-Footprints:SMD-0805" V 1530 2250 30  0001 C CNN
F 3 "" V 1520 2250 30  0000 C CNN
F 4 "100mW" V 1700 2250 40  0001 C CNN "Power"
F 5 "Thick or thin film resistor" V 1845 2250 40  0001 C CNN "Description"
F 6 "0805" V 1775 2250 40  0001 C CNN "Size"
F 7 "1%" V 1925 2250 40  0001 C CNN "Tolerance"
	1    1600 2250
	-1   0    0    -1  
$EndComp
$Comp
L C C407
U 1 1 57900E10
P 2400 2250
F 0 "C407" H 2400 2350 40  0000 L CNN
F 1 "2n7" H 2410 2165 40  0000 L CNN
F 2 "MyKiCadLibs-Footprints:SMD-0805" H 2438 2100 30  0001 C CNN
F 3 "" H 2400 2350 60  0000 C CNN
F 4 "50V" H 2465 2100 40  0000 C CNN "Voltage"
F 5 "C0G" H 2470 2025 40  0000 C CNN "Type"
F 6 "Ceramic capacitor" H 2400 2550 40  0001 L CNN "Description"
F 7 "5%" H 2800 2750 40  0001 C CNN "Tolerance"
F 8 "0805" H 2400 2250 60  0001 C CNN "Size"
	1    2400 2250
	-1   0    0    1   
$EndComp
$Comp
L R R432
U 1 1 57902D5F
P 2100 3900
F 0 "R432" V 2050 3600 40  0000 C CNN
F 1 "100k" V 2107 3901 40  0000 C CNN
F 2 "MyKiCadLibs-Footprints:SMD-0805" V 2030 3900 30  0001 C CNN
F 3 "" V 2020 3900 30  0000 C CNN
F 4 "100mW" V 2200 3900 40  0001 C CNN "Power"
F 5 "Thick or thin film resistor" V 2345 3900 40  0001 C CNN "Description"
F 6 "0805" V 2275 3900 40  0001 C CNN "Size"
F 7 "1%" V 2425 3900 40  0001 C CNN "Tolerance"
	1    2100 3900
	-1   0    0    -1  
$EndComp
$Comp
L R R433
U 1 1 57903655
P 2300 3900
F 0 "R433" V 2250 3600 40  0000 C CNN
F 1 "100k" V 2307 3901 40  0000 C CNN
F 2 "MyKiCadLibs-Footprints:SMD-0805" V 2230 3900 30  0001 C CNN
F 3 "" V 2220 3900 30  0000 C CNN
F 4 "100mW" V 2400 3900 40  0001 C CNN "Power"
F 5 "Thick or thin film resistor" V 2545 3900 40  0001 C CNN "Description"
F 6 "0805" V 2475 3900 40  0001 C CNN "Size"
F 7 "1%" V 2625 3900 40  0001 C CNN "Tolerance"
	1    2300 3900
	-1   0    0    -1  
$EndComp
$Comp
L GNDD #PWR039
U 1 1 579037A8
P 2100 4350
F 0 "#PWR039" H 2100 4100 60  0001 C CNN
F 1 "GNDD" H 2100 4200 60  0000 C CNN
F 2 "" H 2100 4350 60  0000 C CNN
F 3 "" H 2100 4350 60  0000 C CNN
	1    2100 4350
	1    0    0    -1  
$EndComp
Text HLabel 6850 1600 2    60   Input ~ 0
MCLK1
Text HLabel 8300 1600 0    60   Input ~ 0
MCLK2
$Comp
L R R438
U 1 1 5790BD73
P 2400 6650
F 0 "R438" V 2350 6950 40  0000 C CNN
F 1 "0" V 2407 6651 40  0000 C CNN
F 2 "MyKiCadLibs-Footprints:SMD-0805" V 2330 6650 30  0001 C CNN
F 3 "" V 2320 6650 30  0000 C CNN
F 4 "100mW" V 2500 6650 40  0001 C CNN "Power"
F 5 "Thick or thin film resistor" V 2645 6650 40  0001 C CNN "Description"
F 6 "0805" V 2575 6650 40  0001 C CNN "Size"
F 7 "1%" V 2725 6650 40  0001 C CNN "Tolerance"
	1    2400 6650
	0    -1   1    0   
$EndComp
$Comp
L R R439
U 1 1 5790BE79
P 2400 6850
F 0 "R439" V 2350 7150 40  0000 C CNN
F 1 "0" V 2407 6851 40  0000 C CNN
F 2 "MyKiCadLibs-Footprints:SMD-0805" V 2330 6850 30  0001 C CNN
F 3 "" V 2320 6850 30  0000 C CNN
F 4 "100mW" V 2500 6850 40  0001 C CNN "Power"
F 5 "Thick or thin film resistor" V 2645 6850 40  0001 C CNN "Description"
F 6 "0805" V 2575 6850 40  0001 C CNN "Size"
F 7 "1%" V 2725 6850 40  0001 C CNN "Tolerance"
	1    2400 6850
	0    -1   1    0   
$EndComp
$Comp
L GNDD #PWR040
U 1 1 5790CE81
P 2750 7100
F 0 "#PWR040" H 2750 6850 60  0001 C CNN
F 1 "GNDD" H 2750 6950 60  0000 C CNN
F 2 "" H 2750 7100 60  0000 C CNN
F 3 "" H 2750 7100 60  0000 C CNN
	1    2750 7100
	1    0    0    -1  
$EndComp
Text HLabel 1850 5650 0    60   Input ~ 0
L_LOUTN
Text HLabel 1850 5150 0    60   Input ~ 0
L_LOUTP
Text HLabel 1850 6300 0    60   Input ~ 0
R_LOUTN
Text HLabel 1850 5800 0    60   Input ~ 0
R_LOUTP
Text HLabel 1900 6650 0    60   Input ~ 0
L_HPOUT
Text HLabel 1900 6850 0    60   Input ~ 0
R_HPOUT
$Comp
L CONN_5x1 P408
U 1 1 5793CECD
P 2850 6650
F 0 "P408" V 3335 6245 40  0000 C CNN
F 1 "CONN_5x1" V 3280 6360 40  0000 C CNN
F 2 "MyKiCadLibs-Footprints:CONN_SIL_5_1MM" H 3190 6540 60  0001 C CNN
F 3 "" H 3190 6540 60  0000 C CNN
F 4 "Text description" H 3100 6150 40  0001 C CNN "Description"
	1    2850 6650
	1    0    0    -1  
$EndComp
$Comp
L R R440
U 1 1 5793CFAD
P 2400 7050
F 0 "R440" V 2350 7350 40  0000 C CNN
F 1 "0" V 2407 7051 40  0000 C CNN
F 2 "MyKiCadLibs-Footprints:SMD-0805" V 2330 7050 30  0001 C CNN
F 3 "" V 2320 7050 30  0000 C CNN
F 4 "100mW" V 2500 7050 40  0001 C CNN "Power"
F 5 "Thick or thin film resistor" V 2645 7050 40  0001 C CNN "Description"
F 6 "0805" V 2575 7050 40  0001 C CNN "Size"
F 7 "1%" V 2725 7050 40  0001 C CNN "Tolerance"
	1    2400 7050
	0    -1   1    0   
$EndComp
Text HLabel 1900 7050 0    60   Input ~ 0
MONOOUT
$Comp
L C C408
U 1 1 579464F1
P 2700 6050
F 0 "C408" H 2700 6150 40  0000 L CNN
F 1 "2n7" H 2710 5965 40  0000 L CNN
F 2 "MyKiCadLibs-Footprints:SMD-0805" H 2738 5900 30  0001 C CNN
F 3 "" H 2700 6150 60  0000 C CNN
F 4 "50V" H 2765 5900 40  0000 C CNN "Voltage"
F 5 "C0G" H 2770 5825 40  0000 C CNN "Type"
F 6 "Ceramic capacitor" H 2700 6350 40  0001 L CNN "Description"
F 7 "5%" H 3100 6550 40  0001 C CNN "Tolerance"
F 8 "0805" H 2700 6050 60  0001 C CNN "Size"
	1    2700 6050
	1    0    0    -1  
$EndComp
$Comp
L R R437
U 1 1 5790B7D4
P 2350 6300
F 0 "R437" V 2300 6600 40  0000 C CNN
F 1 "100" V 2357 6301 40  0000 C CNN
F 2 "MyKiCadLibs-Footprints:SMD-0805" V 2280 6300 30  0001 C CNN
F 3 "" V 2270 6300 30  0000 C CNN
F 4 "100mW" V 2450 6300 40  0001 C CNN "Power"
F 5 "Thick or thin film resistor" V 2595 6300 40  0001 C CNN "Description"
F 6 "0805" V 2525 6300 40  0001 C CNN "Size"
F 7 "1%" V 2675 6300 40  0001 C CNN "Tolerance"
	1    2350 6300
	0    -1   1    0   
$EndComp
$Comp
L R R436
U 1 1 5790B6F2
P 2350 5800
F 0 "R436" V 2300 6100 40  0000 C CNN
F 1 "100" V 2357 5801 40  0000 C CNN
F 2 "MyKiCadLibs-Footprints:SMD-0805" V 2280 5800 30  0001 C CNN
F 3 "" V 2270 5800 30  0000 C CNN
F 4 "100mW" V 2450 5800 40  0001 C CNN "Power"
F 5 "Thick or thin film resistor" V 2595 5800 40  0001 C CNN "Description"
F 6 "0805" V 2525 5800 40  0001 C CNN "Size"
F 7 "1%" V 2675 5800 40  0001 C CNN "Tolerance"
	1    2350 5800
	0    -1   1    0   
$EndComp
$Comp
L C C406
U 1 1 57948545
P 2700 5400
F 0 "C406" H 2700 5500 40  0000 L CNN
F 1 "2n7" H 2710 5315 40  0000 L CNN
F 2 "MyKiCadLibs-Footprints:SMD-0805" H 2738 5250 30  0001 C CNN
F 3 "" H 2700 5500 60  0000 C CNN
F 4 "50V" H 2765 5250 40  0000 C CNN "Voltage"
F 5 "C0G" H 2770 5175 40  0000 C CNN "Type"
F 6 "Ceramic capacitor" H 2700 5700 40  0001 L CNN "Description"
F 7 "5%" H 3100 5900 40  0001 C CNN "Tolerance"
F 8 "0805" H 2700 5400 60  0001 C CNN "Size"
	1    2700 5400
	1    0    0    -1  
$EndComp
$Comp
L R R429
U 1 1 57948551
P 2350 5650
F 0 "R429" V 2300 5950 40  0000 C CNN
F 1 "100" V 2357 5651 40  0000 C CNN
F 2 "MyKiCadLibs-Footprints:SMD-0805" V 2280 5650 30  0001 C CNN
F 3 "" V 2270 5650 30  0000 C CNN
F 4 "100mW" V 2450 5650 40  0001 C CNN "Power"
F 5 "Thick or thin film resistor" V 2595 5650 40  0001 C CNN "Description"
F 6 "0805" V 2525 5650 40  0001 C CNN "Size"
F 7 "1%" V 2675 5650 40  0001 C CNN "Tolerance"
	1    2350 5650
	0    -1   1    0   
$EndComp
$Comp
L R R428
U 1 1 5794855B
P 2350 5150
F 0 "R428" V 2300 5450 40  0000 C CNN
F 1 "100" V 2357 5151 40  0000 C CNN
F 2 "MyKiCadLibs-Footprints:SMD-0805" V 2280 5150 30  0001 C CNN
F 3 "" V 2270 5150 30  0000 C CNN
F 4 "100mW" V 2450 5150 40  0001 C CNN "Power"
F 5 "Thick or thin film resistor" V 2595 5150 40  0001 C CNN "Description"
F 6 "0805" V 2525 5150 40  0001 C CNN "Size"
F 7 "1%" V 2675 5150 40  0001 C CNN "Tolerance"
	1    2350 5150
	0    -1   1    0   
$EndComp
$Comp
L C C404
U 1 1 57949595
P 2800 4100
F 0 "C404" H 2800 4200 40  0000 L CNN
F 1 "100n" H 2810 4015 40  0000 L CNN
F 2 "MyKiCadLibs-Footprints:SMD-0805" H 2838 3950 30  0001 C CNN
F 3 "" H 2800 4200 60  0000 C CNN
F 4 "16V" H 2815 3945 40  0000 L CNN "Voltage"
F 5 "PPS" H 2815 3875 40  0000 L CNN "Type"
F 6 "PPS Film capacitor - eg PANASONIC ECPU1C104MA5" H 2800 4400 40  0001 L CNN "Description"
F 7 "20%" H 2870 3735 40  0001 C CNN "Tolerance"
F 8 "0805" H 2810 3805 40  0000 L CNN "Size"
	1    2800 4100
	0    1    1    0   
$EndComp
NoConn ~ 5350 5100
NoConn ~ 5350 5200
NoConn ~ 9250 5000
$Comp
L R R406
U 1 1 571298D3
P 6500 1800
F 0 "R406" V 6450 2100 40  0000 C CNN
F 1 "75" V 6507 1801 40  0000 C CNN
F 2 "MyKiCadLibs-Footprints:SMD-0805" V 6430 1800 30  0001 C CNN
F 3 "" V 6420 1800 30  0000 C CNN
F 4 "100mW" V 6600 1800 40  0001 C CNN "Power"
F 5 "Thick or thin film resistor" V 6745 1800 40  0001 C CNN "Description"
F 6 "0805" V 6675 1800 40  0001 C CNN "Size"
F 7 "1%" V 6825 1800 40  0001 C CNN "Tolerance"
	1    6500 1800
	0    -1   1    0   
$EndComp
$Comp
L PIN TP403
U 1 1 561E433D
P 5350 2800
F 0 "TP403" H 5725 2800 40  0000 C CNN
F 1 "PIN" H 5900 2800 40  0001 C CNN
F 2 "MyKiCadLibs-Footprints:TP-TH-1mm" H 5690 2690 60  0001 C CNN
F 3 "" H 5690 2690 60  0000 C CNN
	1    5350 2800
	-1   0    0    -1  
$EndComp
Wire Wire Line
	9600 2100 9600 2400
Wire Wire Line
	8900 2200 9600 2200
Wire Wire Line
	8900 1800 9600 1800
Wire Wire Line
	9600 1800 9600 1900
Wire Wire Line
	8900 2000 10350 2000
Wire Wire Line
	9750 1800 10350 1800
Wire Wire Line
	10300 2200 10350 2200
Connection ~ 10900 2100
Wire Wire Line
	10900 2100 10850 2100
Connection ~ 10900 1900
Wire Wire Line
	10850 1900 10900 1900
Wire Wire Line
	9600 2100 10350 2100
Wire Wire Line
	9600 1900 10350 1900
Connection ~ 10900 2000
Wire Wire Line
	10850 1800 10900 1800
Connection ~ 10900 2200
Wire Wire Line
	10900 2000 10850 2000
Wire Wire Line
	10900 1800 10900 2250
Wire Wire Line
	10900 2200 10850 2200
Connection ~ 9250 1800
Connection ~ 9100 2000
Connection ~ 8950 2200
Wire Wire Line
	9250 1800 9250 2350
Wire Wire Line
	9100 2000 9100 2350
Wire Wire Line
	8950 2200 8950 2350
Wire Wire Line
	8300 2200 8400 2200
Wire Wire Line
	8300 2000 8400 2000
Wire Wire Line
	8950 2850 8950 3100
Connection ~ 9100 3000
Wire Wire Line
	9250 3000 9250 2850
Connection ~ 8950 3000
Wire Wire Line
	8950 3000 9400 3000
Wire Wire Line
	9100 2850 9100 3000
Wire Wire Line
	8300 1800 8400 1800
Wire Wire Line
	8100 4900 8750 4900
Wire Wire Line
	8100 4800 8750 4800
Wire Wire Line
	9750 1600 9750 1800
Wire Wire Line
	8900 1600 9750 1600
Wire Wire Line
	10300 2200 10300 2250
Wire Wire Line
	10250 5100 9250 5100
Wire Wire Line
	8750 5000 8100 5000
Wire Wire Line
	8100 5100 8750 5100
Wire Wire Line
	8750 5200 8100 5200
Wire Wire Line
	9350 5300 9350 5200
Wire Wire Line
	9350 5200 9250 5200
Connection ~ 9550 1800
Wire Wire Line
	9600 2400 9750 2400
Connection ~ 9600 2200
Wire Wire Line
	9750 2250 9700 2250
Wire Wire Line
	9700 2250 9700 2000
Connection ~ 9700 2000
Wire Wire Line
	9550 1500 9550 1800
Wire Wire Line
	9600 1500 9550 1500
Wire Wire Line
	9400 2350 9400 1600
Wire Wire Line
	9400 3000 9400 2850
Connection ~ 9250 3000
Connection ~ 9400 1600
Wire Wire Line
	4950 2200 4900 2200
Connection ~ 4350 2100
Wire Wire Line
	4350 2100 4400 2100
Connection ~ 4350 1900
Wire Wire Line
	4400 1900 4350 1900
Wire Wire Line
	5600 2200 6250 2200
Wire Wire Line
	5600 2100 5600 2450
Wire Wire Line
	4900 2100 5600 2100
Wire Wire Line
	4900 2000 6250 2000
Wire Wire Line
	5600 1800 6250 1800
Wire Wire Line
	5600 1500 5600 1900
Wire Wire Line
	5600 1900 4900 1900
Connection ~ 4350 2000
Wire Wire Line
	4400 1800 4350 1800
Connection ~ 4350 2200
Wire Wire Line
	4350 2000 4400 2000
Wire Wire Line
	4350 1800 4350 2250
Wire Wire Line
	4350 2200 4400 2200
Wire Wire Line
	5600 2950 5600 3200
Connection ~ 5750 3100
Wire Wire Line
	5900 3100 5900 2950
Connection ~ 5600 3100
Wire Wire Line
	5600 3100 6050 3100
Wire Wire Line
	5750 2950 5750 3100
Wire Wire Line
	4950 2250 4950 2200
Wire Wire Line
	4900 1800 5500 1800
Wire Wire Line
	5500 1800 5500 1600
Wire Wire Line
	5500 1600 6250 1600
Connection ~ 5600 2200
Wire Wire Line
	5750 2450 5750 2000
Connection ~ 5750 2000
Wire Wire Line
	5900 2450 5900 1800
Connection ~ 5900 1800
Wire Wire Line
	5100 1500 5600 1500
Connection ~ 5600 1800
Wire Wire Line
	6850 1800 6750 1800
Wire Wire Line
	6850 2000 6750 2000
Wire Wire Line
	6850 2200 6750 2200
Wire Wire Line
	5350 2650 5400 2650
Wire Wire Line
	5400 2650 5400 2000
Connection ~ 5400 2000
Wire Wire Line
	5350 2800 5500 2800
Wire Wire Line
	5500 2800 5500 2100
Connection ~ 5500 2100
Wire Wire Line
	6050 2450 6050 1600
Connection ~ 6050 1600
Wire Wire Line
	6050 3100 6050 2950
Connection ~ 5900 3100
Wire Wire Line
	4750 4700 4750 5250
Wire Wire Line
	4750 5200 4850 5200
Wire Wire Line
	4850 5100 4750 5100
Connection ~ 4750 5200
Wire Wire Line
	4750 5000 4850 5000
Connection ~ 4750 5100
Wire Wire Line
	4850 4900 4750 4900
Connection ~ 4750 5000
Wire Wire Line
	4750 4800 4850 4800
Connection ~ 4750 4900
Wire Wire Line
	4850 4700 4750 4700
Connection ~ 4750 4800
Wire Wire Line
	5450 4800 5350 4800
Wire Wire Line
	5350 4900 5450 4900
Wire Wire Line
	5350 5000 5450 5000
Wire Wire Line
	5350 4700 5450 4700
Wire Wire Line
	1450 1550 1200 1550
Wire Wire Line
	1200 1650 1850 1650
Wire Wire Line
	1450 3300 1200 3300
Wire Wire Line
	1450 3500 1200 3500
Wire Wire Line
	1350 3400 1350 3700
Wire Wire Line
	1350 3600 1200 3600
Wire Wire Line
	1200 3400 1350 3400
Connection ~ 1350 3600
Wire Wire Line
	2600 2900 2450 2900
Wire Wire Line
	2450 2900 2450 3300
Connection ~ 2450 3300
Wire Wire Line
	2600 3700 2450 3700
Wire Wire Line
	2450 3500 2450 4100
Wire Wire Line
	2450 4100 2600 4100
Connection ~ 2450 3700
Wire Wire Line
	3000 2900 3150 2900
Wire Wire Line
	3150 2900 3150 3300
Wire Wire Line
	3000 3300 3300 3300
Wire Wire Line
	3000 3700 3300 3700
Wire Wire Line
	3150 3700 3150 4100
Wire Wire Line
	3150 4100 3000 4100
Connection ~ 3150 3700
Connection ~ 3150 3300
Wire Wire Line
	1600 1650 1600 1600
Wire Wire Line
	1450 1550 1450 1050
Wire Wire Line
	1450 1050 1850 1050
Wire Wire Line
	1600 1050 1600 1100
Connection ~ 1600 1050
Connection ~ 1600 1650
Wire Wire Line
	1600 2550 1600 2500
Wire Wire Line
	1450 1950 1850 1950
Wire Wire Line
	1600 1950 1600 2000
Connection ~ 1600 1950
Connection ~ 1600 2550
Wire Wire Line
	1300 2550 1850 2550
Wire Wire Line
	1300 2550 1300 1850
Wire Wire Line
	1300 1850 1200 1850
Wire Wire Line
	1200 1750 1450 1750
Wire Wire Line
	1450 1750 1450 1950
Wire Wire Line
	1950 3500 2450 3500
Wire Wire Line
	1950 3300 2600 3300
Wire Wire Line
	2100 4150 2100 4350
Wire Wire Line
	2100 4300 2300 4300
Wire Wire Line
	2300 4300 2300 4150
Connection ~ 2100 4300
Wire Wire Line
	2300 3650 2300 3500
Connection ~ 2300 3500
Wire Wire Line
	6850 1600 6750 1600
Wire Wire Line
	8300 1600 8400 1600
Wire Wire Line
	2100 3650 2100 3300
Connection ~ 2100 3300
Wire Wire Line
	2850 6650 2650 6650
Wire Wire Line
	2850 6850 2650 6850
Wire Wire Line
	2750 6750 2750 7100
Wire Wire Line
	2750 6950 2850 6950
Wire Wire Line
	2850 6750 2750 6750
Connection ~ 2750 6950
Wire Wire Line
	2150 6650 1900 6650
Wire Wire Line
	1900 6850 2150 6850
Wire Wire Line
	1900 7050 2150 7050
Wire Wire Line
	2650 7050 2850 7050
Wire Wire Line
	2400 1150 2400 1050
Wire Wire Line
	2350 1050 2600 1050
Wire Wire Line
	2400 1550 2400 1650
Wire Wire Line
	2350 1650 2600 1650
Connection ~ 2400 1050
Connection ~ 2400 1650
Wire Wire Line
	2400 2050 2400 1950
Wire Wire Line
	2350 1950 2600 1950
Wire Wire Line
	2400 2450 2400 2550
Wire Wire Line
	2350 2550 2600 2550
Connection ~ 2400 1950
Connection ~ 2400 2550
Wire Wire Line
	2600 6300 3200 6300
Wire Wire Line
	2700 6250 2700 6300
Wire Wire Line
	2700 5750 2700 5850
Wire Wire Line
	2600 5800 2700 5800
Wire Wire Line
	2100 6300 1850 6300
Wire Wire Line
	1850 5800 2100 5800
Wire Wire Line
	2600 5650 3300 5650
Wire Wire Line
	2700 5600 2700 5650
Wire Wire Line
	2700 5150 2700 5200
Wire Wire Line
	2600 5150 3200 5150
Wire Wire Line
	2100 5650 1850 5650
Wire Wire Line
	1850 5150 2100 5150
Wire Wire Line
	3300 5550 3200 5550
Wire Wire Line
	3200 5550 3200 5150
Connection ~ 2700 5150
Connection ~ 2700 5650
Wire Wire Line
	2700 5750 3300 5750
Connection ~ 2700 5800
Wire Wire Line
	3300 5850 3200 5850
Wire Wire Line
	3200 5850 3200 6300
Connection ~ 2700 6300
$Comp
L R R408
U 1 1 57129CAA
P 6500 2200
F 0 "R408" V 6450 2500 40  0000 C CNN
F 1 "0" V 6507 2201 40  0000 C CNN
F 2 "MyKiCadLibs-Footprints:SMD-0805" V 6430 2200 30  0001 C CNN
F 3 "" V 6420 2200 30  0000 C CNN
F 4 "100mW" V 6600 2200 40  0001 C CNN "Power"
F 5 "Thick or thin film resistor" V 6745 2200 40  0001 C CNN "Description"
F 6 "0805" V 6675 2200 40  0001 C CNN "Size"
F 7 "1%" V 6825 2200 40  0001 C CNN "Tolerance"
	1    6500 2200
	0    -1   1    0   
$EndComp
$EndSCHEMATC
