EESchema Schematic File Version 2
LIBS:power
LIBS:MyKiCadLibs-Lib
LIBS:DSP-ADAU1761-MircoPCB-cache
EELAYER 25 0
EELAYER END
$Descr A4 11693 8268
encoding utf-8
Sheet 1 4
Title "ADAU145x DSP - ADAU1452, ADAU1451, ADAU1450 supported"
Date "2016-05-25"
Rev "2.0"
Comp "Open Hardware DSP Platform - www.ohdsp.org"
Comment1 "MERCHANTABILITY, SATISFACTORY QUALITY AND FITNESS FOR A PARTICULAR PURPOSE."
Comment2 "is distributed WITHOUT ANY EXPRESS OR IMPLIED WARRANTY, INCLUDING OF"
Comment3 "Licensed under the TAPR Open Hardware License (www.tapr.org/OHL). This documentation"
Comment4 "Copyright Paul Janicki 2016"
$EndDescr
$Sheet
S 1700 1550 2350 2900
U 54BE4270
F0 "ADAU1761" 50
F1 "ADAU1761.sch" 50
F2 "I2C_SCL" B R 4050 3200 60 
F3 "I2C_SDA" B R 4050 3300 60 
F4 "MCLK" O R 4050 3900 60 
F5 "SPI_MISO" O R 4050 3450 60 
F6 "SPI_SCLK" I R 4050 3550 60 
F7 "SPI_MOSI" I R 4050 3650 60 
F8 "SPI_SS" I R 4050 3750 60 
F9 "MCLK2" O R 4050 4000 60 
F10 "LINP" I L 1700 1700 60 
F11 "LINN" I L 1700 1800 60 
F12 "RINP" I L 1700 1950 60 
F13 "RINN" I L 1700 2050 60 
F14 "LAUX" I L 1700 2200 60 
F15 "RAUX" I L 1700 2300 60 
F16 "LOUTN" O R 4050 1700 60 
F17 "LOUTP" O R 4050 1800 60 
F18 "ROUTN" O R 4050 1950 60 
F19 "ROUTP" O R 4050 2050 60 
F20 "RHP" O R 4050 2200 60 
F21 "LHP" O R 4050 2300 60 
F22 "ADC_SDATA/GPIO1" I L 1700 2850 60 
F23 "DAC_SDATA/GPIO0" O L 1700 2950 60 
F24 "BCLK1" O L 1700 3150 60 
F25 "BCLK2" O L 1700 3250 60 
F26 "LRCLK1" O L 1700 3450 60 
F27 "LRCLK2" O L 1700 3550 60 
F28 "MONOOUT" O R 4050 2450 60 
$EndSheet
$Sheet
S 8150 1950 1300 1150
U 54DA50D9
F0 "Power Supply" 60
F1 "ADAU1761 PSU.sch" 60
$EndSheet
$Sheet
S 1700 4650 2350 2750
U 54E8D6A6
F0 "Connectors" 60
F1 "Connectors.sch" 60
F2 "ADC_LRCLK0" I L 1700 4750 60 
F3 "ADC_BCLK0" I L 1700 4850 60 
F4 "ADC_SDATA0" O L 1700 4950 60 
F5 "DAC_LRCLK0" I R 4050 4750 60 
F6 "DAC_BCLK0" I R 4050 4850 60 
F7 "DAC_SDATA0" I R 4050 4950 60 
F8 "I2C_SCL" B R 4050 6150 60 
F9 "I2C_SDA" B R 4050 6250 60 
F10 "~USB_RST" O L 1700 6950 60 
F11 "SPI_MISO" I R 4050 6400 60 
F12 "SPI_SCLK" O R 4050 6500 60 
F13 "SPI_SS" O R 4050 6600 60 
F14 "SPI_MOSI" O R 4050 6700 60 
F15 "M_SPI_MISO" O R 4050 7300 60 
F16 "M_SPI_SCLK" I R 4050 7100 60 
F17 "M_SPI_SS" I L 1700 7300 60 
F18 "M_SPI_MOSI" I R 4050 7200 60 
F19 "M_MUTE" I L 1700 7100 60 
F20 "M_RST" I L 1700 7200 60 
F21 "L_AUX" O R 4050 5300 60 
F22 "R_AUX" O R 4050 5400 60 
F23 "L_LINP" O R 4050 5550 60 
F24 "L_LINN" O R 4050 5650 60 
F25 "R_LINP" O R 4050 5800 60 
F26 "R_LINN" O R 4050 5900 60 
F27 "MCLK1" I L 1700 5050 60 
F28 "MCLK2" I R 4050 5050 60 
F29 "L_LOUTN" I L 1700 5400 60 
F30 "L_LOUTP" I L 1700 5300 60 
F31 "R_LOUTN" I L 1700 5650 60 
F32 "R_LOUTP" I L 1700 5550 60 
F33 "L_HPOUT" I L 1700 5800 60 
F34 "R_HPOUT" I L 1700 5900 60 
F35 "MONOOUT" I L 1700 6050 60 
$EndSheet
Text Label 1050 4750 0    60   ~ 0
IN_LRCLK0
Text Label 1050 4850 0    60   ~ 0
IN_BCLK0
Text Label 1050 4950 0    60   ~ 0
IN_SDATA0
Wire Wire Line
	1050 4750 1700 4750
Wire Wire Line
	1700 4850 1050 4850
Wire Wire Line
	1050 4950 1700 4950
Text Label 4650 4750 2    60   ~ 0
OUT_LRCLK0
Text Label 4650 4850 2    60   ~ 0
OUT_BCLK0
Text Label 4650 4950 2    60   ~ 0
OUT_SDATA0
Wire Wire Line
	4050 4750 4650 4750
Wire Wire Line
	4650 4850 4050 4850
Wire Wire Line
	4050 4950 4650 4950
Text Label 4650 3900 2    60   ~ 0
MCLK
Text Label 4650 6250 2    60   ~ 0
I2C_SDA
Text Label 4650 6150 2    60   ~ 0
I2C_SCL
Wire Wire Line
	4050 3200 4650 3200
Wire Wire Line
	4050 3300 4650 3300
Wire Wire Line
	4050 6250 4650 6250
Wire Wire Line
	4050 6150 4650 6150
Text Label 1050 6950 0    60   ~ 0
MAN_RESET
Wire Wire Line
	1050 6950 1700 6950
Wire Wire Line
	4650 3900 4050 3900
Text Label 4650 3200 2    60   ~ 0
I2C_SCL
Text Label 4650 3300 2    60   ~ 0
I2C_SDA
Text Label 4650 3450 2    60   ~ 0
SPI_MISO
Text Label 4650 3550 2    60   ~ 0
SPI_SCLK
Text Label 4650 3650 2    60   ~ 0
SPI_MOSI
Text Label 4650 3750 2    60   ~ 0
SPI_SS
Wire Wire Line
	4650 3450 4050 3450
Wire Wire Line
	4050 3550 4650 3550
Wire Wire Line
	4650 3650 4050 3650
Wire Wire Line
	4050 3750 4650 3750
Text Label 4650 6400 2    60   ~ 0
SPI_MISO
Text Label 4650 6500 2    60   ~ 0
SPI_SCLK
Text Label 4650 6700 2    60   ~ 0
SPI_MOSI
Text Label 4650 6600 2    60   ~ 0
SPI_SS
Wire Wire Line
	4650 6400 4050 6400
Wire Wire Line
	4050 6500 4650 6500
Wire Wire Line
	4650 6600 4050 6600
Wire Wire Line
	4050 6700 4650 6700
Text Label 4650 4000 2    60   ~ 0
MCLK2
Wire Wire Line
	4050 4000 4650 4000
Text Notes 700  700  0    118  ~ 0
Open Hardware DSP Platform - www.ohdsp.org\n
Text Label 1050 7100 0    60   ~ 0
SPI_M_MUTE
Text Label 1050 7300 0    60   ~ 0
SPI_M_CS
Wire Wire Line
	1700 7100 1050 7100
Wire Wire Line
	1050 7200 1700 7200
Wire Wire Line
	1700 7300 1050 7300
Text Label 4650 7100 2    60   ~ 0
SPI_M_CLK
Text Label 4650 7200 2    60   ~ 0
SPI_M_MOSI
Text Label 4650 7300 2    60   ~ 0
SPI_M_MISO
Wire Wire Line
	4650 7100 4050 7100
Wire Wire Line
	4050 7200 4650 7200
Wire Wire Line
	4650 7300 4050 7300
Text Label 1050 7200 0    60   ~ 0
GLB_RESET
Text Notes 5450 5300 0    79   ~ 0
All digital I/O is 3V3. Use outside this voltage can cause damage.\n\nSee bill of materials for detailed parts information.\n\nTrace impedance on SPI/I2C, MCLK, and I2S is designed for approx 89ohm.\n26AWG ribbon cable used with Ground-Signal-Ground is approx 89ohm.
Text Notes 5400 4550 0    118  ~ 0
Notes:
Text Notes 700  1075 0    118  ~ 0
ADAU145x DSP - ADAU1452, ADAU1451, ADAU1450 all supported\nRevision 2.0
Text Label 1050 5050 0    60   ~ 0
MCLK
Wire Wire Line
	1050 5050 1700 5050
Text Label 4650 5050 2    60   ~ 0
MCLK2
Wire Wire Line
	4050 5050 4650 5050
Text Label 1050 2850 0    60   ~ 0
IN_SDATA0
Wire Wire Line
	1050 2850 1700 2850
Text Label 1050 2950 0    60   ~ 0
OUT_SDATA0
Wire Wire Line
	1050 2950 1700 2950
Text Label 1050 3550 0    60   ~ 0
OUT_LRCLK0
Text Label 1050 3450 0    60   ~ 0
IN_LRCLK0
Text Label 1050 3150 0    60   ~ 0
IN_BCLK0
Text Label 1050 3250 0    60   ~ 0
OUT_BCLK0
Wire Wire Line
	1050 3150 1700 3150
Wire Wire Line
	1700 3250 1050 3250
Wire Wire Line
	1050 3450 1700 3450
Wire Wire Line
	1700 3550 1050 3550
Text Label 1050 1700 0    60   ~ 0
LINP
Wire Wire Line
	1050 1700 1700 1700
Text Label 1050 1800 0    60   ~ 0
LINN
Wire Wire Line
	1050 1800 1700 1800
Text Label 1050 1950 0    60   ~ 0
RINP
Wire Wire Line
	1050 1950 1700 1950
Text Label 1050 2050 0    60   ~ 0
RINN
Wire Wire Line
	1050 2050 1700 2050
Text Label 1050 2200 0    60   ~ 0
LAUX
Wire Wire Line
	1050 2200 1700 2200
Text Label 1050 2300 0    60   ~ 0
RAUX
Wire Wire Line
	1050 2300 1700 2300
Wire Wire Line
	4050 1700 4650 1700
Wire Wire Line
	4050 1800 4650 1800
Text Label 4650 1700 2    60   ~ 0
LOUTN
Text Label 4650 1800 2    60   ~ 0
LOUTP
Wire Wire Line
	4050 1950 4650 1950
Wire Wire Line
	4050 2050 4650 2050
Text Label 4650 1950 2    60   ~ 0
ROUTN
Text Label 4650 2050 2    60   ~ 0
ROUTP
Wire Wire Line
	4050 2200 4650 2200
Wire Wire Line
	4050 2300 4650 2300
Text Label 4650 2200 2    60   ~ 0
RHP
Text Label 4650 2300 2    60   ~ 0
LHP
Wire Wire Line
	1700 5300 1050 5300
Wire Wire Line
	1700 5400 1050 5400
Text Label 1050 5400 0    60   ~ 0
LOUTN
Text Label 1050 5300 0    60   ~ 0
LOUTP
Wire Wire Line
	1700 5550 1050 5550
Wire Wire Line
	1700 5650 1050 5650
Text Label 1050 5650 0    60   ~ 0
ROUTN
Text Label 1050 5550 0    60   ~ 0
ROUTP
Wire Wire Line
	1700 5800 1050 5800
Wire Wire Line
	1700 5900 1050 5900
Text Label 1050 5900 0    60   ~ 0
RHP
Text Label 1050 5800 0    60   ~ 0
LHP
Text Label 4700 5550 2    60   ~ 0
LINP
Wire Wire Line
	4700 5550 4050 5550
Text Label 4700 5650 2    60   ~ 0
LINN
Wire Wire Line
	4700 5650 4050 5650
Text Label 4700 5800 2    60   ~ 0
RINP
Wire Wire Line
	4700 5800 4050 5800
Text Label 4700 5900 2    60   ~ 0
RINN
Wire Wire Line
	4700 5900 4050 5900
Text Label 4700 5300 2    60   ~ 0
LAUX
Wire Wire Line
	4700 5300 4050 5300
Text Label 4700 5400 2    60   ~ 0
RAUX
Wire Wire Line
	4700 5400 4050 5400
Wire Wire Line
	4050 2450 4650 2450
Text Label 4650 2450 2    60   ~ 0
MONOOUT
Text Label 1050 6050 0    60   ~ 0
MONOOUT
Wire Wire Line
	1050 6050 1700 6050
$EndSCHEMATC
